// S/C Mass Properties used for g1 segment with t0 = 1143459421
// SC mass (kg)
 424
// SC center of mass in mechanical frame (x,y,z) in meters
0.0012	0.00245	0.491
// SC moment of inertia in body frame in kg-m^2
 122	  -1	-3.15
  -1	 121	-2.44
-3.15	-2.44	 202
// SC moment of inertia in H1 frame in kg-m^2
 225	-0.808	-6.66
-0.808	 239	-2.91
-6.66	-2.91	 217
// SC moment of inertia in H2 frame in kg-m^2
 225	-1.2	-0.1
-1.2	 240	-2.91
-0.1	-2.91	 217
